Studying Caregivers of Persons with Dementia
…
#Prediction on the test data
anxiety.lr.pred.values.test <-  bind_cols(
  truth = anxiety_test$gad2_cg_cat,
  predict(lr_cls_fit, anxiety_test),
  predict(lr_cls_fit, anxiety_test, type = "prob")
)
anxiety.lr.pred.values.test

# A tibble: 71 × 4
   truth .pred_class .pred_false .pred_true
   <fct> <fct>             <dbl>      <dbl>
 1 true  false             0.747      0.253
 2 true  true              0.292      0.708
 3 true  true              0.328      0.672
 4 false false             0.765      0.235
 5 false false             0.537      0.463
 6 true  false             0.570      0.430
 7 false false             0.593      0.407
 8 true  false             0.522      0.478
 9 true  false             0.578      0.422
10 false true              0.395      0.605
# ℹ 61 more rows
…
#Prediction on the test data
depression.lr.pred.values.test <-  bind_cols(
  truth = depression_test$phq2_cg_cat,
  predict(lr_cls_fit, depression_test),
  predict(lr_cls_fit, depression_test, type = "prob")
)
depression.lr.pred.values.test

# A tibble: 71 × 4
   truth .pred_class .pred_false .pred_true
   <fct> <fct>             <dbl>      <dbl>
 1 false false             0.676      0.324
 2 false true              0.323      0.677
 3 true  false             0.564      0.436
 4 false true              0.374      0.626
 5 false true              0.178      0.822
 6 true  true              0.379      0.621
 7 false false             0.551      0.449
 8 true  false             0.648      0.352
 9 false false             0.566      0.434
10 true  false             0.639      0.361
# ℹ 61 more rows
…
